…
It seems there isn't much variation in his tweeting patterns over the course of the electoral journey.

Let's turn our attention to text mining by looking at the most frequently occurring words in this dataset. To do this, we leverage the tidytext function 'unnest\_tokens' which splits each tweet into a one word per row format. To maintain an understanding of which word belongs to which tweet, we mutate the initial dataframe - before unnesting - so that each tweet has a pre-defined 'ID'. We also remove any stop-words (e.g. 'a', 'of', 'the'), digits and words like 'Trump / trump':

``` r
trump_tweets_unnested <- trump_tweets_clean %>%
  mutate(ID = row_number()) %>% 
  unnest_tokens(output = "Word", input = "Tweet") %>% # split each tweet into a series of one-word rows
  anti_join(stop_words, by = c("Word" = "word")) %>% # remove stop-words like 'a', 'the' etc.
  filter(!(Word %in% c("trump", "Trump")), str_detect(Word, "[a-z]")) # filter out any numbers

trump_tweets_unnested # check on representation of data
```

    ## # A tibble: 57,401 x 12
    ##     Year Month   Day  Hour Type  Media_Type Hashtags  Likes Retweets
    ##    <int> <int> <int> <int> <fct> <fct>      <fct>     <int>    <int>
    ##  1    16    11    11    15 text  photo      ThankAV… 127213    41112
    ##  2    16    11    11    15 text  photo      ThankAV… 127213    41112
    ##  3    16    11    11    15 text  photo      ThankAV… 127213    41112
    ##  4    16    11    11    15 text  photo      ThankAV… 127213    41112
    ##  5    16    11    11    15 text  photo      ThankAV… 127213    41112
    ##  6    16    11    11    15 text  photo      ThankAV… 127213    41112
    ##  7    16    11    11    15 text  photo      ThankAV… 127213    41112
    ##  8    16    11    11    13 text  (None)     (None)   141527    28654
    ##  9    16    11    11    13 text  (None)     (None)   141527    28654
    ## 10    16    11    11    13 text  (None)     (None)   141527    28654
    ## # ... with 57,391 more rows, and 3 more variables: Hour_Min <dbl>,
    ## #   ID <int>, Word <chr>
…
