Emerging trends in the reporting of the coronavirus
…
One important point to make here is that we dont want to include all words in our analysis - some words (such as Bolton in regards to Trumps impeachment trial) appear a high number of times on one or two days then vanish thereafter. This type of term, from our point of view, is only going to create unnecessary noise in our algorithm fitting process so we want to exclude them. One way of doing this is to require that all words included in our analysis appear a certain number of times overall - Ive gone with 50 as this seemed to provide the most fair results:

logit_model_inputs <- archive_unnested %>%
  count(article_term, cum_time_elapsed, name = "successes") %>%
  add_count(article_term, name = "term_count") %>%
  filter(term_count > 50) %>% # only include words which appear more than a certain number of times overall over the past 4 months - we want to identify the signal, not the noise
  arrange(cum_time_elapsed) %>%
  left_join(cum_time_counts, by = "cum_time_elapsed") %>%
  mutate(p_est = successes / trials,
         cum_time_elapsed = as.integer(cum_time_elapsed)) %>%
  select(article_term, cum_time_elapsed, successes, trials, p_est, term_count) # purely for presentational purposes

logit_model_inputs

## # A tibble: 33,481 x 6
##    article_term cum_time_elapsed successes trials   p_est term_count
##    <chr>                   <int>     <int>  <int>   <dbl>      <int>
##  1 accused                     0         1    960 0.00104         61
##  2 act                         0         1    960 0.00104         56
##  3 agency                      0         1    960 0.00104         54
##  4 ago                         0         1    960 0.00104         59
##  5 ahead                       0         1    960 0.00104         72
##  6 america                     0         3    960 0.00312         94
##  7 american                    0         1    960 0.00104        109
##  8 amid                        0         1    960 0.00104         87
##  9 angeles                     0         1    960 0.00104         61
## 10 anti                        0         2    960 0.00208         53
## #  with 33,471 more rows
…
