…
``` r
library(tidyverse)
library(magrittr)
library(lubridate)
library(broom)

species_raw <- read_csv("https://raw.githubusercontent.com/rfordatascience/tidytuesday/master/data/2018/2018-12-18/allCetaceanData.csv") %>%
  select(-X1) # X1 seems to be a meaningless extra variable

# most species are bottleneck & orca
species_raw %>%
  count(species, sort = TRUE)
```

    ## # A tibble: 37 x 2
    ##    species                      n
    ##    <chr>                    <int>
    ##  1 Bottlenose                1668
    ##  2 Killer Whale; Orca          79
    ##  3 Beluga                      68
    ##  4 White-sided, Pacific        56
    ##  5 Pacific White-Sided         41
    ##  6 Commerson's                 37
    ##  7 Spinner                     36
    ##  8 Beluga Whale                28
    ##  9 Short-Finned Pilot Whale    25
    ## 10 Pilot, Short-fin            22
    ## # ... with 27 more rows
…
    ## # A tibble: 3 x 2
    ##   seaworld_ind     n
    ##   <lgl>        <int>
    ## 1 FALSE          374
    ## 2 TRUE           428
    ## 3 NA            1392

``` r
# what's the difference between origin date (year animal entered captivity) and entry date (year that the animal entered the US captive population) - seems like the latter is when the animal entered captivity *in the US*
species_raw %>%
  mutate(date_equality_test = (originDate == entryDate)) %>%
  filter(date_equality_test == FALSE) 
```

    ## # A tibble: 21 x 22
    ##    species id    name  sex   accuracy birthYear acquisition originDate
    ##    <chr>   <chr> <chr> <chr> <chr>    <chr>     <chr>       <date>    
    ##  1 Bottle… NOA0… Nimb… M     a        1999      Born        1999-06-14
    ##  2 Bottle… NOA0… Mala… M     a        2000      Born        2000-06-13
    ##  3 Bottle… NOA0… Tatem M     a        2004      Born        2004-04-08
    ##  4 Bottle… NOA0… Lily  F     a        2004      Born        2004-04-09
    ##  5 Bottle… NOA0… Luna  F     a        2007      Born        2007-05-23
    ##  6 Bottle… NOA0… Berm… F     a        2007      Born        2007-06-06
    ##  7 Beluga  NOA0… Ferd… M     e        1970      Capture     1975-07-31
    ##  8 Beluga  NOA0… Allua F     e        1978      Capture     1985-07-14
    ##  9 Beluga  NOA0… Imaq  M     e        1987      Capture     1990-08-12
    ## 10 Bottle… NOA0… Nea   F     a        2007      Born        2007-06-03
    ## # ... with 11 more rows, and 14 more variables: originLocation <chr>,
    ## #   mother <chr>, father <chr>, transfers <chr>, currently <chr>,
    ## #   region <chr>, status <chr>, statusDate <date>, COD <chr>, notes <chr>,
    ## #   transferDate <date>, transfer <chr>, entryDate <date>,
    ## #   date_equality_test <lgl>
…
